{
  "project_info": {
    "project_number": "567472167739",
    "firebase_url": "https://englishacademy-1518197230516.firebaseio.com",
    "project_id": "englishacademy-1518197230516",
    "storage_bucket": "englishacademy-1518197230516.appspot.com"
  },
  "client": [
    {
      "client_info": {
        "mobilesdk_app_id": "1:567472167739:android:0f4eb02548612d09",
        "android_client_info": {
          "package_name": "com.manyfler.noam.englishacademy"
        }
      },
      "oauth_client": [
        {
          "client_id": "567472167739-esm6ri17ap6ornvtsda7se7435nojnjq.apps.googleusercontent.com",
          "client_type": 3
        },
        {
          "client_id": "567472167739-vb25nukgqq6i7aepqh9571m13q46gqba.apps.googleusercontent.com",
          "client_type": 1,
          "android_info": {
            "package_name": "com.manyfler.noam.englishacademy",
            "certificate_hash": "9886142930e813f9596b92170747dc8e77612b12"
          }
        },
        {
          "client_id": "567472167739-bdnhi77r6vtpbc2mj5sqj1a016738oo9.apps.googleusercontent.com",
          "client_type": 3
        }
      ],
      "api_key": [
        {
          "current_key": "AIzaSyChZB9JBIA5kEeam2yEuBEVNYsO3j5CuxE"
        }
      ],
      "services": {
        "analytics_service": {
          "status": 1
        },
        "appinvite_service": {
          "status": 2,
          "other_platform_oauth_client": [
            {
              "client_id": "567472167739-esm6ri17ap6ornvtsda7se7435nojnjq.apps.googleusercontent.com",
              "client_type": 3
            }
          ]
        },
        "ads_service": {
          "status": 2
        }
      }
    }
  ],
  "configuration_version": "1"
}